Final Project for STAT 301-3
…
We can see that the distribution of our outcome variable is slightly skewed with more movies having Oscar nominations. We will take this into account when splitting our data and will be sure to stratify based on our outcome variable.

Next we will observe the missing values, if any, using the skimr and naniar packages. The essential component of feature engineering for models is non-missingness, so it important that we address missing values as soon as possible.

Missingness

skimr::skim_without_charts(potential_data)

naniar::miss_var_summary(potential_data)

## # A tibble: 119 x 3
##    variable                                       n_miss pct_miss
##    <chr>                                           <int>    <dbl>
##  1 Directors_Guild_won_categories                   1163     98.3
##  2 Writers_Guild_won_categories                     1150     97.2
##  3 Producers_Guild_won_categories                   1149     97.1
##  4 Costume_Designers_Guild_won_categories           1142     96.5
##  5 American_Cinema_Editors_won_categories           1140     96.4
##  6 Art_Directors_Guild_won_categories               1137     96.1
##  7 People_Choice_won_categories                     1127     95.3
##  8 Denver_Film_Critics_Society_won_categories       1108     93.7
##  9 Screen_Actors_Guild_won_categories               1103     93.2
## 10 Austin_Film_Critics_Association_won_categories   1090     92.1
## #  with 109 more rows
…
